{
  "project_info": {
    "project_number": "134534423125",
    "firebase_url": "https://takyon360-5cccb.firebaseio.com",
    "project_id": "takyon360-5cccb",
    "storage_bucket": "takyon360-5cccb.appspot.com"
  },
  "client": [
    {
      "client_info": {
        "mobilesdk_app_id": "1:134534423125:android:ed10bdb8b3e53a14",
        "android_client_info": {
          "package_name": "com.RAKScholars"
        }
      },
      "oauth_client": [],
      "api_key": [
        {
          "current_key": "AIzaSyBnPs9i5gfhat8fSMB385JB99nGgwjgTks"
        }
      ],
      "services": {
        "appinvite_service": {
          "other_platform_oauth_client": [
            {
              "client_id": "134534423125-qp3f6o76tuqc4m694j2bpgf012ha12eu.apps.googleusercontent.com",
              "client_type": 2,
              "ios_info": {
                "bundle_id": "com.reportz.IAS"
              }
            }
          ]
        }
      }
    },
    {
      "client_info": {
        "mobilesdk_app_id": "1:134534423125:android:b3006cf8cc8e055c",
        "android_client_info": {
          "package_name": "com.alameer"
        }
      },
      "oauth_client": [],
      "api_key": [
        {
          "current_key": "AIzaSyBnPs9i5gfhat8fSMB385JB99nGgwjgTks"
        }
      ],
      "services": {
        "appinvite_service": {
          "other_platform_oauth_client": [
            {
              "client_id": "134534423125-qp3f6o76tuqc4m694j2bpgf012ha12eu.apps.googleusercontent.com",
              "client_type": 2,
              "ios_info": {
                "bundle_id": "com.reportz.IAS"
              }
            }
          ]
        }
      }
    },
    {
      "client_info": {
        "mobilesdk_app_id": "1:134534423125:android:2b1b2df68038cfea",
        "android_client_info": {
          "package_name": "com.asdreportz"
        }
      },
      "oauth_client": [],
      "api_key": [
        {
          "current_key": "AIzaSyBnPs9i5gfhat8fSMB385JB99nGgwjgTks"
        }
      ],
      "services": {
        "appinvite_service": {
          "other_platform_oauth_client": [
            {
              "client_id": "134534423125-qp3f6o76tuqc4m694j2bpgf012ha12eu.apps.googleusercontent.com",
              "client_type": 2,
              "ios_info": {
                "bundle_id": "com.reportz.IAS"
              }
            }
          ]
        }
      }
    },
    {
      "client_info": {
        "mobilesdk_app_id": "1:134534423125:android:8546495b0ff8714c",
        "android_client_info": {
          "package_name": "com.habitat"
        }
      },
      "oauth_client": [],
      "api_key": [
        {
          "current_key": "AIzaSyBnPs9i5gfhat8fSMB385JB99nGgwjgTks"
        }
      ],
      "services": {
        "appinvite_service": {
          "other_platform_oauth_client": [
            {
              "client_id": "134534423125-qp3f6o76tuqc4m694j2bpgf012ha12eu.apps.googleusercontent.com",
              "client_type": 2,
              "ios_info": {
                "bundle_id": "com.reportz.IAS"
              }
            }
          ]
        }
      }
    },
    {
      "client_info": {
        "mobilesdk_app_id": "1:134534423125:android:ba9b0082f4eb7305",
        "android_client_info": {
          "package_name": "com.newAcademy"
        }
      },
      "oauth_client": [],
      "api_key": [
        {
          "current_key": "AIzaSyBnPs9i5gfhat8fSMB385JB99nGgwjgTks"
        }
      ],
      "services": {
        "appinvite_service": {
          "other_platform_oauth_client": [
            {
              "client_id": "134534423125-qp3f6o76tuqc4m694j2bpgf012ha12eu.apps.googleusercontent.com",
              "client_type": 2,
              "ios_info": {
                "bundle_id": "com.reportz.IAS"
              }
            }
          ]
        }
      }
    },
    {
      "client_info": {
        "mobilesdk_app_id": "1:134534423125:android:ac26d2910c890205",
        "android_client_info": {
          "package_name": "com.reportz.CEHS"
        }
      },
      "oauth_client": [],
      "api_key": [
        {
          "current_key": "AIzaSyBnPs9i5gfhat8fSMB385JB99nGgwjgTks"
        }
      ],
      "services": {
        "appinvite_service": {
          "other_platform_oauth_client": [
            {
              "client_id": "134534423125-qp3f6o76tuqc4m694j2bpgf012ha12eu.apps.googleusercontent.com",
              "client_type": 2,
              "ios_info": {
                "bundle_id": "com.reportz.IAS"
              }
            }
          ]
        }
      }
    },
    {
      "client_info": {
        "mobilesdk_app_id": "1:134534423125:android:84dc7a6961e61fe9",
        "android_client_info": {
          "package_name": "com.reportz.CitySchool"
        }
      },
      "oauth_client": [],
      "api_key": [
        {
          "current_key": "AIzaSyBnPs9i5gfhat8fSMB385JB99nGgwjgTks"
        }
      ],
      "services": {
        "appinvite_service": {
          "other_platform_oauth_client": [
            {
              "client_id": "134534423125-qp3f6o76tuqc4m694j2bpgf012ha12eu.apps.googleusercontent.com",
              "client_type": 2,
              "ios_info": {
                "bundle_id": "com.reportz.IAS"
              }
            }
          ]
        }
      }
    },
    {
      "client_info": {
        "mobilesdk_app_id": "1:134534423125:android:fd97b3f29b7b4342",
        "android_client_info": {
          "package_name": "com.reportz.EFIA"
        }
      },
      "oauth_client": [],
      "api_key": [
        {
          "current_key": "AIzaSyBnPs9i5gfhat8fSMB385JB99nGgwjgTks"
        }
      ],
      "services": {
        "appinvite_service": {
          "other_platform_oauth_client": [
            {
              "client_id": "134534423125-qp3f6o76tuqc4m694j2bpgf012ha12eu.apps.googleusercontent.com",
              "client_type": 2,
              "ios_info": {
                "bundle_id": "com.reportz.IAS"
              }
            }
          ]
        }
      }
    },
    {
      "client_info": {
        "mobilesdk_app_id": "1:134534423125:android:ae5c1684de6674bd",
        "android_client_info": {
          "package_name": "com.reportz.IAS"
        }
      },
      "oauth_client": [],
      "api_key": [
        {
          "current_key": "AIzaSyBnPs9i5gfhat8fSMB385JB99nGgwjgTks"
        }
      ],
      "services": {
        "appinvite_service": {
          "other_platform_oauth_client": [
            {
              "client_id": "134534423125-qp3f6o76tuqc4m694j2bpgf012ha12eu.apps.googleusercontent.com",
              "client_type": 2,
              "ios_info": {
                "bundle_id": "com.reportz.IAS"
              }
            }
          ]
        }
      }
    },
    {
      "client_info": {
        "mobilesdk_app_id": "1:134534423125:android:13517d6f2fc7f285",
        "android_client_info": {
          "package_name": "com.reportz.PEPS"
        }
      },
      "oauth_client": [],
      "api_key": [
        {
          "current_key": "AIzaSyBnPs9i5gfhat8fSMB385JB99nGgwjgTks"
        }
      ],
      "services": {
        "appinvite_service": {
          "other_platform_oauth_client": [
            {
              "client_id": "134534423125-qp3f6o76tuqc4m694j2bpgf012ha12eu.apps.googleusercontent.com",
              "client_type": 2,
              "ios_info": {
                "bundle_id": "com.reportz.IAS"
              }
            }
          ]
        }
      }
    },
    {
      "client_info": {
        "mobilesdk_app_id": "1:134534423125:android:cc783f4dd998806b",
        "android_client_info": {
          "package_name": "com.reportz.RAKA"
        }
      },
      "oauth_client": [],
      "api_key": [
        {
          "current_key": "AIzaSyBnPs9i5gfhat8fSMB385JB99nGgwjgTks"
        }
      ],
      "services": {
        "appinvite_service": {
          "other_platform_oauth_client": [
            {
              "client_id": "134534423125-qp3f6o76tuqc4m694j2bpgf012ha12eu.apps.googleusercontent.com",
              "client_type": 2,
              "ios_info": {
                "bundle_id": "com.reportz.IAS"
              }
            }
          ]
        }
      }
    },
    {
      "client_info": {
        "mobilesdk_app_id": "1:134534423125:android:8ebe00cb894a6ed2",
        "android_client_info": {
          "package_name": "com.reportz.SAMA"
        }
      },
      "oauth_client": [],
      "api_key": [
        {
          "current_key": "AIzaSyBnPs9i5gfhat8fSMB385JB99nGgwjgTks"
        }
      ],
      "services": {
        "appinvite_service": {
          "other_platform_oauth_client": [
            {
              "client_id": "134534423125-qp3f6o76tuqc4m694j2bpgf012ha12eu.apps.googleusercontent.com",
              "client_type": 2,
              "ios_info": {
                "bundle_id": "com.reportz.IAS"
              }
            }
          ]
        }
      }
    },
    {
      "client_info": {
        "mobilesdk_app_id": "1:134534423125:android:84fb1a43fe6d98d5",
        "android_client_info": {
          "package_name": "com.reportz.SMG"
        }
      },
      "oauth_client": [],
      "api_key": [
        {
          "current_key": "AIzaSyBnPs9i5gfhat8fSMB385JB99nGgwjgTks"
        }
      ],
      "services": {
        "appinvite_service": {
          "other_platform_oauth_client": [
            {
              "client_id": "134534423125-qp3f6o76tuqc4m694j2bpgf012ha12eu.apps.googleusercontent.com",
              "client_type": 2,
              "ios_info": {
                "bundle_id": "com.reportz.IAS"
              }
            }
          ]
        }
      }
    },
    {
      "client_info": {
        "mobilesdk_app_id": "1:134534423125:android:92e7a4089374bd21",
        "android_client_info": {
          "package_name": "com.reportz.abcPrivateSchool"
        }
      },
      "oauth_client": [],
      "api_key": [
        {
          "current_key": "AIzaSyBnPs9i5gfhat8fSMB385JB99nGgwjgTks"
        }
      ],
      "services": {
        "appinvite_service": {
          "other_platform_oauth_client": [
            {
              "client_id": "134534423125-qp3f6o76tuqc4m694j2bpgf012ha12eu.apps.googleusercontent.com",
              "client_type": 2,
              "ios_info": {
                "bundle_id": "com.reportz.IAS"
              }
            }
          ]
        }
      }
    },
    {
      "client_info": {
        "mobilesdk_app_id": "1:134534423125:android:85ed3e483cc172d4",
        "android_client_info": {
          "package_name": "com.reportz.aisr"
        }
      },
      "oauth_client": [],
      "api_key": [
        {
          "current_key": "AIzaSyBnPs9i5gfhat8fSMB385JB99nGgwjgTks"
        }
      ],
      "services": {
        "appinvite_service": {
          "other_platform_oauth_client": [
            {
              "client_id": "134534423125-qp3f6o76tuqc4m694j2bpgf012ha12eu.apps.googleusercontent.com",
              "client_type": 2,
              "ios_info": {
                "bundle_id": "com.reportz.IAS"
              }
            }
          ]
        }
      }
    },
    {
      "client_info": {
        "mobilesdk_app_id": "1:134534423125:android:71ef81aa7e2ad2eb",
        "android_client_info": {
          "package_name": "com.reportz.ajmanAmericanSchool"
        }
      },
      "oauth_client": [],
      "api_key": [
        {
          "current_key": "AIzaSyBnPs9i5gfhat8fSMB385JB99nGgwjgTks"
        }
      ],
      "services": {
        "appinvite_service": {
          "other_platform_oauth_client": [
            {
              "client_id": "134534423125-qp3f6o76tuqc4m694j2bpgf012ha12eu.apps.googleusercontent.com",
              "client_type": 2,
              "ios_info": {
                "bundle_id": "com.reportz.IAS"
              }
            }
          ]
        }
      }
    },
    {
      "client_info": {
        "mobilesdk_app_id": "1:134534423125:android:c603dfe03a78cb2c",
        "android_client_info": {
          "package_name": "com.reportz.ajyal"
        }
      },
      "oauth_client": [],
      "api_key": [
        {
          "current_key": "AIzaSyBnPs9i5gfhat8fSMB385JB99nGgwjgTks"
        }
      ],
      "services": {
        "appinvite_service": {
          "other_platform_oauth_client": [
            {
              "client_id": "134534423125-qp3f6o76tuqc4m694j2bpgf012ha12eu.apps.googleusercontent.com",
              "client_type": 2,
              "ios_info": {
                "bundle_id": "com.reportz.IAS"
              }
            }
          ]
        }
      }
    },
    {
      "client_info": {
        "mobilesdk_app_id": "1:134534423125:android:0a5ef7d7097e515e",
        "android_client_info": {
          "package_name": "com.reportz.alamanaAlAmanaSchool"
        }
      },
      "oauth_client": [],
      "api_key": [
        {
          "current_key": "AIzaSyBnPs9i5gfhat8fSMB385JB99nGgwjgTks"
        }
      ],
      "services": {
        "appinvite_service": {
          "other_platform_oauth_client": [
            {
              "client_id": "134534423125-qp3f6o76tuqc4m694j2bpgf012ha12eu.apps.googleusercontent.com",
              "client_type": 2,
              "ios_info": {
                "bundle_id": "com.reportz.IAS"
              }
            }
          ]
        }
      }
    },
    {
      "client_info": {
        "mobilesdk_app_id": "1:134534423125:android:1c7bc46c8f6d67c1",
        "android_client_info": {
          "package_name": "com.reportz.ams"
        }
      },
      "oauth_client": [],
      "api_key": [
        {
          "current_key": "AIzaSyBnPs9i5gfhat8fSMB385JB99nGgwjgTks"
        }
      ],
      "services": {
        "appinvite_service": {
          "other_platform_oauth_client": [
            {
              "client_id": "134534423125-qp3f6o76tuqc4m694j2bpgf012ha12eu.apps.googleusercontent.com",
              "client_type": 2,
              "ios_info": {
                "bundle_id": "com.reportz.IAS"
              }
            }
          ]
        }
      }
    },
    {
      "client_info": {
        "mobilesdk_app_id": "1:134534423125:android:4644a7fbcbe8a807",
        "android_client_info": {
          "package_name": "com.reportz.britishInternationalSchool"
        }
      },
      "oauth_client": [],
      "api_key": [
        {
          "current_key": "AIzaSyBnPs9i5gfhat8fSMB385JB99nGgwjgTks"
        }
      ],
      "services": {
        "appinvite_service": {
          "other_platform_oauth_client": [
            {
              "client_id": "134534423125-qp3f6o76tuqc4m694j2bpgf012ha12eu.apps.googleusercontent.com",
              "client_type": 2,
              "ios_info": {
                "bundle_id": "com.reportz.IAS"
              }
            }
          ]
        }
      }
    },
    {
      "client_info": {
        "mobilesdk_app_id": "1:134534423125:android:7a581c9cd1b30fe6",
        "android_client_info": {
          "package_name": "com.reportz.credence"
        }
      },
      "oauth_client": [],
      "api_key": [
        {
          "current_key": "AIzaSyBnPs9i5gfhat8fSMB385JB99nGgwjgTks"
        }
      ],
      "services": {
        "appinvite_service": {
          "other_platform_oauth_client": [
            {
              "client_id": "134534423125-qp3f6o76tuqc4m694j2bpgf012ha12eu.apps.googleusercontent.com",
              "client_type": 2,
              "ios_info": {
                "bundle_id": "com.reportz.IAS"
              }
            }
          ]
        }
      }
    },
    {
      "client_info": {
        "mobilesdk_app_id": "1:134534423125:android:c5be949041341466",
        "android_client_info": {
          "package_name": "com.reportz.daralUloomSchool"
        }
      },
      "oauth_client": [],
      "api_key": [
        {
          "current_key": "AIzaSyBnPs9i5gfhat8fSMB385JB99nGgwjgTks"
        }
      ],
      "services": {
        "appinvite_service": {
          "other_platform_oauth_client": [
            {
              "client_id": "134534423125-qp3f6o76tuqc4m694j2bpgf012ha12eu.apps.googleusercontent.com",
              "client_type": 2,
              "ios_info": {
                "bundle_id": "com.reportz.IAS"
              }
            }
          ]
        }
      }
    },
    {
      "client_info": {
        "mobilesdk_app_id": "1:134534423125:android:33a8bd1eea6a7264",
        "android_client_info": {
          "package_name": "com.reportz.falcon"
        }
      },
      "oauth_client": [],
      "api_key": [
        {
          "current_key": "AIzaSyBnPs9i5gfhat8fSMB385JB99nGgwjgTks"
        }
      ],
      "services": {
        "appinvite_service": {
          "other_platform_oauth_client": [
            {
              "client_id": "134534423125-qp3f6o76tuqc4m694j2bpgf012ha12eu.apps.googleusercontent.com",
              "client_type": 2,
              "ios_info": {
                "bundle_id": "com.reportz.IAS"
              }
            }
          ]
        }
      }
    },
    {
      "client_info": {
        "mobilesdk_app_id": "1:134534423125:android:8b0421b7bffb5a0a",
        "android_client_info": {
          "package_name": "com.reportz.hk"
        }
      },
      "oauth_client": [],
      "api_key": [
        {
          "current_key": "AIzaSyBnPs9i5gfhat8fSMB385JB99nGgwjgTks"
        }
      ],
      "services": {
        "appinvite_service": {
          "other_platform_oauth_client": [
            {
              "client_id": "134534423125-qp3f6o76tuqc4m694j2bpgf012ha12eu.apps.googleusercontent.com",
              "client_type": 2,
              "ios_info": {
                "bundle_id": "com.reportz.IAS"
              }
            }
          ]
        }
      }
    },
    {
      "client_info": {
        "mobilesdk_app_id": "1:134534423125:android:a764c83cf0b71c3a",
        "android_client_info": {
          "package_name": "com.reportz.hkSchoolTrenz"
        }
      },
      "oauth_client": [],
      "api_key": [
        {
          "current_key": "AIzaSyBnPs9i5gfhat8fSMB385JB99nGgwjgTks"
        }
      ],
      "services": {
        "appinvite_service": {
          "other_platform_oauth_client": [
            {
              "client_id": "134534423125-qp3f6o76tuqc4m694j2bpgf012ha12eu.apps.googleusercontent.com",
              "client_type": 2,
              "ios_info": {
                "bundle_id": "com.reportz.IAS"
              }
            }
          ]
        }
      }
    },
    {
      "client_info": {
        "mobilesdk_app_id": "1:134534423125:android:20f8a217465f2aa9",
        "android_client_info": {
          "package_name": "com.reportz.ibnKhaldounIslamic"
        }
      },
      "oauth_client": [],
      "api_key": [
        {
          "current_key": "AIzaSyBnPs9i5gfhat8fSMB385JB99nGgwjgTks"
        }
      ],
      "services": {
        "appinvite_service": {
          "other_platform_oauth_client": [
            {
              "client_id": "134534423125-qp3f6o76tuqc4m694j2bpgf012ha12eu.apps.googleusercontent.com",
              "client_type": 2,
              "ios_info": {
                "bundle_id": "com.reportz.IAS"
              }
            }
          ]
        }
      }
    },
    {
      "client_info": {
        "mobilesdk_app_id": "1:134534423125:android:2fe1202b425ef72a",
        "android_client_info": {
          "package_name": "com.reportz.ics"
        }
      },
      "oauth_client": [],
      "api_key": [
        {
          "current_key": "AIzaSyBnPs9i5gfhat8fSMB385JB99nGgwjgTks"
        }
      ],
      "services": {
        "appinvite_service": {
          "other_platform_oauth_client": [
            {
              "client_id": "134534423125-qp3f6o76tuqc4m694j2bpgf012ha12eu.apps.googleusercontent.com",
              "client_type": 2,
              "ios_info": {
                "bundle_id": "com.reportz.IAS"
              }
            }
          ]
        }
      }
    },
    {
      "client_info": {
        "mobilesdk_app_id": "1:134534423125:android:c6e4ecef9ae1d187",
        "android_client_info": {
          "package_name": "com.reportz.littleHavenNursery"
        }
      },
      "oauth_client": [],
      "api_key": [
        {
          "current_key": "AIzaSyBnPs9i5gfhat8fSMB385JB99nGgwjgTks"
        }
      ],
      "services": {
        "appinvite_service": {
          "other_platform_oauth_client": [
            {
              "client_id": "134534423125-qp3f6o76tuqc4m694j2bpgf012ha12eu.apps.googleusercontent.com",
              "client_type": 2,
              "ios_info": {
                "bundle_id": "com.reportz.IAS"
              }
            }
          ]
        }
      }
    },
    {
      "client_info": {
        "mobilesdk_app_id": "1:134534423125:android:a2c7237645eebc2e",
        "android_client_info": {
          "package_name": "com.reportz.mhEnglishSchool"
        }
      },
      "oauth_client": [],
      "api_key": [
        {
          "current_key": "AIzaSyBnPs9i5gfhat8fSMB385JB99nGgwjgTks"
        }
      ],
      "services": {
        "appinvite_service": {
          "other_platform_oauth_client": [
            {
              "client_id": "134534423125-qp3f6o76tuqc4m694j2bpgf012ha12eu.apps.googleusercontent.com",
              "client_type": 2,
              "ios_info": {
                "bundle_id": "com.reportz.IAS"
              }
            }
          ]
        }
      }
    },
    {
      "client_info": {
        "mobilesdk_app_id": "1:134534423125:android:7c5249177167229a",
        "android_client_info": {
          "package_name": "com.reportz.pakistanEducationAcademy"
        }
      },
      "oauth_client": [],
      "api_key": [
        {
          "current_key": "AIzaSyBnPs9i5gfhat8fSMB385JB99nGgwjgTks"
        }
      ],
      "services": {
        "appinvite_service": {
          "other_platform_oauth_client": [
            {
              "client_id": "134534423125-qp3f6o76tuqc4m694j2bpgf012ha12eu.apps.googleusercontent.com",
              "client_type": 2,
              "ios_info": {
                "bundle_id": "com.reportz.IAS"
              }
            }
          ]
        }
      }
    },
    {
      "client_info": {
        "mobilesdk_app_id": "1:134534423125:android:dcdd181b59088f3c",
        "android_client_info": {
          "package_name": "com.reportz.qualityEducation"
        }
      },
      "oauth_client": [],
      "api_key": [
        {
          "current_key": "AIzaSyBnPs9i5gfhat8fSMB385JB99nGgwjgTks"
        }
      ],
      "services": {
        "appinvite_service": {
          "other_platform_oauth_client": [
            {
              "client_id": "134534423125-qp3f6o76tuqc4m694j2bpgf012ha12eu.apps.googleusercontent.com",
              "client_type": 2,
              "ios_info": {
                "bundle_id": "com.reportz.IAS"
              }
            }
          ]
        }
      }
    },
    {
      "client_info": {
        "mobilesdk_app_id": "1:134534423125:android:b068a810d4523d4c",
        "android_client_info": {
          "package_name": "com.reportz.renaissanceSchoolDubai"
        }
      },
      "oauth_client": [],
      "api_key": [
        {
          "current_key": "AIzaSyBnPs9i5gfhat8fSMB385JB99nGgwjgTks"
        }
      ],
      "services": {
        "appinvite_service": {
          "other_platform_oauth_client": [
            {
              "client_id": "134534423125-qp3f6o76tuqc4m694j2bpgf012ha12eu.apps.googleusercontent.com",
              "client_type": 2,
              "ios_info": {
                "bundle_id": "com.reportz.IAS"
              }
            }
          ]
        }
      }
    },
    {
      "client_info": {
        "mobilesdk_app_id": "1:134534423125:android:8aac77d20a63ad59",
        "android_client_info": {
          "package_name": "com.reportz.salmiyaIndianModelSchool"
        }
      },
      "oauth_client": [],
      "api_key": [
        {
          "current_key": "AIzaSyBnPs9i5gfhat8fSMB385JB99nGgwjgTks"
        }
      ],
      "services": {
        "appinvite_service": {
          "other_platform_oauth_client": [
            {
              "client_id": "134534423125-qp3f6o76tuqc4m694j2bpgf012ha12eu.apps.googleusercontent.com",
              "client_type": 2,
              "ios_info": {
                "bundle_id": "com.reportz.IAS"
              }
            }
          ]
        }
      }
    },
    {
      "client_info": {
        "mobilesdk_app_id": "1:134534423125:android:8ccd92c51f6e9c16",
        "android_client_info": {
          "package_name": "com.reportz.smm"
        }
      },
      "oauth_client": [],
      "api_key": [
        {
          "current_key": "AIzaSyBnPs9i5gfhat8fSMB385JB99nGgwjgTks"
        }
      ],
      "services": {
        "appinvite_service": {
          "other_platform_oauth_client": [
            {
              "client_id": "134534423125-qp3f6o76tuqc4m694j2bpgf012ha12eu.apps.googleusercontent.com",
              "client_type": 2,
              "ios_info": {
                "bundle_id": "com.reportz.IAS"
              }
            }
          ]
        }
      }
    },
    {
      "client_info": {
        "mobilesdk_app_id": "1:134534423125:android:e325059f859aae70",
        "android_client_info": {
          "package_name": "com.reportz.starprivate"
        }
      },
      "oauth_client": [],
      "api_key": [
        {
          "current_key": "AIzaSyBnPs9i5gfhat8fSMB385JB99nGgwjgTks"
        }
      ],
      "services": {
        "appinvite_service": {
          "other_platform_oauth_client": [
            {
              "client_id": "134534423125-qp3f6o76tuqc4m694j2bpgf012ha12eu.apps.googleusercontent.com",
              "client_type": 2,
              "ios_info": {
                "bundle_id": "com.reportz.IAS"
              }
            }
          ]
        }
      }
    },
    {
      "client_info": {
        "mobilesdk_app_id": "1:134534423125:android:5b5b8f820ef034c7",
        "android_client_info": {
          "package_name": "com.reportz.taryam"
        }
      },
      "oauth_client": [],
      "api_key": [
        {
          "current_key": "AIzaSyBnPs9i5gfhat8fSMB385JB99nGgwjgTks"
        }
      ],
      "services": {
        "appinvite_service": {
          "other_platform_oauth_client": [
            {
              "client_id": "134534423125-qp3f6o76tuqc4m694j2bpgf012ha12eu.apps.googleusercontent.com",
              "client_type": 2,
              "ios_info": {
                "bundle_id": "com.reportz.IAS"
              }
            }
          ]
        }
      }
    },
    {
      "client_info": {
        "mobilesdk_app_id": "1:134534423125:android:f730d66657bc1cfe",
        "android_client_info": {
          "package_name": "com.reportz.woodlem"
        }
      },
      "oauth_client": [],
      "api_key": [
        {
          "current_key": "AIzaSyBnPs9i5gfhat8fSMB385JB99nGgwjgTks"
        }
      ],
      "services": {
        "appinvite_service": {
          "other_platform_oauth_client": [
            {
              "client_id": "134534423125-qp3f6o76tuqc4m694j2bpgf012ha12eu.apps.googleusercontent.com",
              "client_type": 2,
              "ios_info": {
                "bundle_id": "com.reportz.IAS"
              }
            }
          ]
        }
      }
    },
    {
      "client_info": {
        "mobilesdk_app_id": "1:134534423125:android:60cd1f69d6d0e3c2",
        "android_client_info": {
          "package_name": "net.lasagu.leaders"
        }
      },
      "oauth_client": [],
      "api_key": [
        {
          "current_key": "AIzaSyBnPs9i5gfhat8fSMB385JB99nGgwjgTks"
        }
      ],
      "services": {
        "appinvite_service": {
          "other_platform_oauth_client": [
            {
              "client_id": "134534423125-qp3f6o76tuqc4m694j2bpgf012ha12eu.apps.googleusercontent.com",
              "client_type": 2,
              "ios_info": {
                "bundle_id": "com.reportz.IAS"
              }
            }
          ]
        }
      }
    },
    {
      "client_info": {
        "mobilesdk_app_id": "1:134534423125:android:6683d151137b4944",
        "android_client_info": {
          "package_name": "net.lasagu.takyon360"
        }
      },
      "oauth_client": [],
      "api_key": [
        {
          "current_key": "AIzaSyBnPs9i5gfhat8fSMB385JB99nGgwjgTks"
        }
      ],
      "services": {
        "appinvite_service": {
          "other_platform_oauth_client": [
            {
              "client_id": "134534423125-qp3f6o76tuqc4m694j2bpgf012ha12eu.apps.googleusercontent.com",
              "client_type": 2,
              "ios_info": {
                "bundle_id": "com.reportz.IAS"
              }
            }
          ]
        }
      }
    },
    {
      "client_info": {
        "mobilesdk_app_id": "1:134534423125:android:9396595fd1827761",
        "android_client_info": {
          "package_name": "net.lasagu.takyon360buzz"
        }
      },
      "oauth_client": [],
      "api_key": [
        {
          "current_key": "AIzaSyBnPs9i5gfhat8fSMB385JB99nGgwjgTks"
        }
      ],
      "services": {
        "appinvite_service": {
          "other_platform_oauth_client": [
            {
              "client_id": "134534423125-qp3f6o76tuqc4m694j2bpgf012ha12eu.apps.googleusercontent.com",
              "client_type": 2,
              "ios_info": {
                "bundle_id": "com.reportz.IAS"
              }
            }
          ]
        }
      }
    }
  ],
  "configuration_version": "1"
}