{
  "project_info": {
    "project_number": "134534423125",
    "firebase_url": "https://takyon360-5cccb.firebaseio.com",
    "project_id": "takyon360-5cccb",
    "storage_bucket": "takyon360-5cccb.appspot.com"
  },
  "client": [
    {
      "client_info": {
        "mobilesdk_app_id": "1:134534423125:android:8546495b0ff8714c",
        "android_client_info": {
          "package_name": "com.habitat"
        }
      },
      "oauth_client": [
        {
          "client_id": "134534423125-pgilovdr21qehmrg79f17jc97bkss47n.apps.googleusercontent.com",
          "client_type": 3
        },
        {
          "client_id": "134534423125-pgilovdr21qehmrg79f17jc97bkss47n.apps.googleusercontent.com",
          "client_type": 3
        }
      ],
      "api_key": [
        {
          "current_key": "AIzaSyBnPs9i5gfhat8fSMB385JB99nGgwjgTks"
        }
      ],
      "services": {
        "analytics_service": {
          "status": 1
        },
        "appinvite_service": {
          "status": 1,
          "other_platform_oauth_client": []
        },
        "ads_service": {
          "status": 2
        }
      }
    },
    {
      "client_info": {
        "mobilesdk_app_id": "1:134534423125:android:52e90037c635a64e",
        "android_client_info": {
          "package_name": "net.lasagu.habitat"
        }
      },
      "oauth_client": [
        {
          "client_id": "134534423125-pgilovdr21qehmrg79f17jc97bkss47n.apps.googleusercontent.com",
          "client_type": 3
        },
        {
          "client_id": "134534423125-pgilovdr21qehmrg79f17jc97bkss47n.apps.googleusercontent.com",
          "client_type": 3
        }
      ],
      "api_key": [
        {
          "current_key": "AIzaSyBnPs9i5gfhat8fSMB385JB99nGgwjgTks"
        }
      ],
      "services": {
        "analytics_service": {
          "status": 1
        },
        "appinvite_service": {
          "status": 1,
          "other_platform_oauth_client": []
        },
        "ads_service": {
          "status": 2
        }
      }
    },
    {
      "client_info": {
        "mobilesdk_app_id": "1:134534423125:android:60cd1f69d6d0e3c2",
        "android_client_info": {
          "package_name": "net.lasagu.leaders"
        }
      },
      "oauth_client": [
        {
          "client_id": "134534423125-pgilovdr21qehmrg79f17jc97bkss47n.apps.googleusercontent.com",
          "client_type": 3
        },
        {
          "client_id": "134534423125-pgilovdr21qehmrg79f17jc97bkss47n.apps.googleusercontent.com",
          "client_type": 3
        }
      ],
      "api_key": [
        {
          "current_key": "AIzaSyBnPs9i5gfhat8fSMB385JB99nGgwjgTks"
        }
      ],
      "services": {
        "analytics_service": {
          "status": 1
        },
        "appinvite_service": {
          "status": 1,
          "other_platform_oauth_client": []
        },
        "ads_service": {
          "status": 2
        }
      }
    },
    {
      "client_info": {
        "mobilesdk_app_id": "1:134534423125:android:6683d151137b4944",
        "android_client_info": {
          "package_name": "net.lasagu.takyon360"
        }
      },
      "oauth_client": [
        {
          "client_id": "134534423125-pgilovdr21qehmrg79f17jc97bkss47n.apps.googleusercontent.com",
          "client_type": 3
        },
        {
          "client_id": "134534423125-pgilovdr21qehmrg79f17jc97bkss47n.apps.googleusercontent.com",
          "client_type": 3
        }
      ],
      "api_key": [
        {
          "current_key": "AIzaSyBnPs9i5gfhat8fSMB385JB99nGgwjgTks"
        }
      ],
      "services": {
        "analytics_service": {
          "status": 1
        },
        "appinvite_service": {
          "status": 1,
          "other_platform_oauth_client": []
        },
        "ads_service": {
          "status": 2
        }
      }
    },
    {
      "client_info": {
        "mobilesdk_app_id": "1:134534423125:android:9396595fd1827761",
        "android_client_info": {
          "package_name": "net.lasagu.takyon360buzz"
        }
      },
      "oauth_client": [
        {
          "client_id": "134534423125-pgilovdr21qehmrg79f17jc97bkss47n.apps.googleusercontent.com",
          "client_type": 3
        },
        {
          "client_id": "134534423125-pgilovdr21qehmrg79f17jc97bkss47n.apps.googleusercontent.com",
          "client_type": 3
        }
      ],
      "api_key": [
        {
          "current_key": "AIzaSyBnPs9i5gfhat8fSMB385JB99nGgwjgTks"
        }
      ],
      "services": {
        "analytics_service": {
          "status": 1
        },
        "appinvite_service": {
          "status": 1,
          "other_platform_oauth_client": []
        },
        "ads_service": {
          "status": 2
        }
      }
    }
  ],
  "configuration_version": "1"
}